SEM-2/intro-hdl/Lab-1 (cswap)/wide_adder.vcd
$date
	Sun Apr 14 09:54:45 2019
$end
$version
	Icarus Verilog
$end
$timescale
	100ps
$end
$scope module test $end
$var wire 1 ! C1 $end
$var wire 4 " A1 [3:0] $end
$var reg 4 # A [3:0] $end
$var reg 4 $ B [3:0] $end
$var reg 1 % C $end
$scope module wa $end
$var wire 4 & a [3:0] $end
$var wire 4 ' b [3:0] $end
$var wire 1 % cin $end
$var wire 4 ( s [3:0] $end
$var wire 1 ! cout $end
$var wire 5 ) c [4:0] $end
$scope begin genblk1[0] $end
$scope module fa $end
$var wire 1 * a $end
$var wire 1 + b $end
$var wire 1 , cin $end
$var wire 1 - s $end
$var wire 1 . m3 $end
$var wire 1 / m1 $end
$var wire 1 0 l3 $end
$var wire 1 1 l2 $end
$var wire 1 2 k3 $end
$var wire 1 3 k2 $end
$var wire 1 4 k1 $end
$var wire 1 5 j3 $end
$var wire 1 6 j2 $end
$var wire 1 7 j1 $end
$var wire 1 8 i3 $end
$var wire 1 9 i2 $end
$var wire 1 : i1 $end
$var wire 1 ; cout $end
$scope module g1 $end
$var wire 1 * A $end
$var wire 1 : A1 $end
$var wire 1 < Ab $end
$var wire 1 = B $end
$var wire 1 9 B1 $end
$var wire 1 > B11 $end
$var wire 1 ? B12 $end
$var wire 1 @ C $end
$var wire 1 8 C1 $end
$var wire 1 A C11 $end
$var wire 1 B C12 $end
$upscope $end
$scope module g2 $end
$var wire 1 + A $end
$var wire 1 7 A1 $end
$var wire 1 C Ab $end
$var wire 1 9 B $end
$var wire 1 6 B1 $end
$var wire 1 D B11 $end
$var wire 1 E B12 $end
$var wire 1 8 C $end
$var wire 1 5 C1 $end
$var wire 1 F C11 $end
$var wire 1 G C12 $end
$upscope $end
$scope module g3 $end
$var wire 1 , A $end
$var wire 1 4 A1 $end
$var wire 1 H Ab $end
$var wire 1 6 B $end
$var wire 1 3 B1 $end
$var wire 1 I B11 $end
$var wire 1 J B12 $end
$var wire 1 5 C $end
$var wire 1 2 C1 $end
$var wire 1 K C11 $end
$var wire 1 L C12 $end
$upscope $end
$scope module g4 $end
$var wire 1 3 A $end
$var wire 1 - A1 $end
$var wire 1 M Ab $end
$var wire 1 4 B $end
$var wire 1 1 B1 $end
$var wire 1 N B11 $end
$var wire 1 O B12 $end
$var wire 1 2 C $end
$var wire 1 0 C1 $end
$var wire 1 P C11 $end
$var wire 1 Q C12 $end
$upscope $end
$scope module g5 $end
$var wire 1 7 A $end
$var wire 1 / A1 $end
$var wire 1 R Ab $end
$var wire 1 1 B $end
$var wire 1 ; B1 $end
$var wire 1 S B11 $end
$var wire 1 T B12 $end
$var wire 1 0 C $end
$var wire 1 . C1 $end
$var wire 1 U C11 $end
$var wire 1 V C12 $end
$upscope $end
$upscope $end
$upscope $end
$scope begin genblk1[1] $end
$scope module fa $end
$var wire 1 W a $end
$var wire 1 X b $end
$var wire 1 Y cin $end
$var wire 1 Z s $end
$var wire 1 [ m3 $end
$var wire 1 \ m1 $end
$var wire 1 ] l3 $end
$var wire 1 ^ l2 $end
$var wire 1 _ k3 $end
$var wire 1 ` k2 $end
$var wire 1 a k1 $end
$var wire 1 b j3 $end
$var wire 1 c j2 $end
$var wire 1 d j1 $end
$var wire 1 e i3 $end
$var wire 1 f i2 $end
$var wire 1 g i1 $end
$var wire 1 h cout $end
$scope module g1 $end
$var wire 1 W A $end
$var wire 1 g A1 $end
$var wire 1 i Ab $end
$var wire 1 j B $end
$var wire 1 f B1 $end
$var wire 1 k B11 $end
$var wire 1 l B12 $end
$var wire 1 m C $end
$var wire 1 e C1 $end
$var wire 1 n C11 $end
$var wire 1 o C12 $end
$upscope $end
$scope module g2 $end
$var wire 1 X A $end
$var wire 1 d A1 $end
$var wire 1 p Ab $end
$var wire 1 f B $end
$var wire 1 c B1 $end
$var wire 1 q B11 $end
$var wire 1 r B12 $end
$var wire 1 e C $end
$var wire 1 b C1 $end
$var wire 1 s C11 $end
$var wire 1 t C12 $end
$upscope $end
$scope module g3 $end
$var wire 1 Y A $end
$var wire 1 a A1 $end
$var wire 1 u Ab $end
$var wire 1 c B $end
$var wire 1 ` B1 $end
$var wire 1 v B11 $end
$var wire 1 w B12 $end
$var wire 1 b C $end
$var wire 1 _ C1 $end
$var wire 1 x C11 $end
$var wire 1 y C12 $end
$upscope $end
$scope module g4 $end
$var wire 1 ` A $end
$var wire 1 Z A1 $end
$var wire 1 z Ab $end
$var wire 1 a B $end
$var wire 1 ^ B1 $end
$var wire 1 { B11 $end
$var wire 1 | B12 $end
$var wire 1 _ C $end
$var wire 1 ] C1 $end
$var wire 1 } C11 $end
$var wire 1 ~ C12 $end
$upscope $end
$scope module g5 $end
$var wire 1 d A $end
$var wire 1 \ A1 $end
$var wire 1 !" Ab $end
$var wire 1 ^ B $end
$var wire 1 h B1 $end
$var wire 1 "" B11 $end
$var wire 1 #" B12 $end
$var wire 1 ] C $end
$var wire 1 [ C1 $end
$var wire 1 $" C11 $end
$var wire 1 %" C12 $end
$upscope $end
$upscope $end
$upscope $end
$scope begin genblk1[2] $end
$scope module fa $end
$var wire 1 &" a $end
$var wire 1 '" b $end
$var wire 1 (" cin $end
$var wire 1 )" s $end
$var wire 1 *" m3 $end
$var wire 1 +" m1 $end
$var wire 1 ," l3 $end
$var wire 1 -" l2 $end
$var wire 1 ." k3 $end
$var wire 1 /" k2 $end
$var wire 1 0" k1 $end
$var wire 1 1" j3 $end
$var wire 1 2" j2 $end
$var wire 1 3" j1 $end
$var wire 1 4" i3 $end
$var wire 1 5" i2 $end
$var wire 1 6" i1 $end
$var wire 1 7" cout $end
$scope module g1 $end
$var wire 1 &" A $end
$var wire 1 6" A1 $end
$var wire 1 8" Ab $end
$var wire 1 9" B $end
$var wire 1 5" B1 $end
$var wire 1 :" B11 $end
$var wire 1 ;" B12 $end
$var wire 1 <" C $end
$var wire 1 4" C1 $end
$var wire 1 =" C11 $end
$var wire 1 >" C12 $end
$upscope $end
$scope module g2 $end
$var wire 1 '" A $end
$var wire 1 3" A1 $end
$var wire 1 ?" Ab $end
$var wire 1 5" B $end
$var wire 1 2" B1 $end
$var wire 1 @" B11 $end
$var wire 1 A" B12 $end
$var wire 1 4" C $end
$var wire 1 1" C1 $end
$var wire 1 B" C11 $end
$var wire 1 C" C12 $end
$upscope $end
$scope module g3 $end
$var wire 1 (" A $end
$var wire 1 0" A1 $end
$var wire 1 D" Ab $end
$var wire 1 2" B $end
$var wire 1 /" B1 $end
$var wire 1 E" B11 $end
$var wire 1 F" B12 $end
$var wire 1 1" C $end
$var wire 1 ." C1 $end
$var wire 1 G" C11 $end
$var wire 1 H" C12 $end
$upscope $end
$scope module g4 $end
$var wire 1 /" A $end
$var wire 1 )" A1 $end
$var wire 1 I" Ab $end
$var wire 1 0" B $end
$var wire 1 -" B1 $end
$var wire 1 J" B11 $end
$var wire 1 K" B12 $end
$var wire 1 ." C $end
$var wire 1 ," C1 $end
$var wire 1 L" C11 $end
$var wire 1 M" C12 $end
$upscope $end
$scope module g5 $end
$var wire 1 3" A $end
$var wire 1 +" A1 $end
$var wire 1 N" Ab $end
$var wire 1 -" B $end
$var wire 1 7" B1 $end
$var wire 1 O" B11 $end
$var wire 1 P" B12 $end
$var wire 1 ," C $end
$var wire 1 *" C1 $end
$var wire 1 Q" C11 $end
$var wire 1 R" C12 $end
$upscope $end
$upscope $end
$upscope $end
$scope begin genblk1[3] $end
$scope module fa $end
$var wire 1 S" a $end
$var wire 1 T" b $end
$var wire 1 U" cin $end
$var wire 1 V" s $end
$var wire 1 W" m3 $end
$var wire 1 X" m1 $end
$var wire 1 Y" l3 $end
$var wire 1 Z" l2 $end
$var wire 1 [" k3 $end
$var wire 1 \" k2 $end
$var wire 1 ]" k1 $end
$var wire 1 ^" j3 $end
$var wire 1 _" j2 $end
$var wire 1 `" j1 $end
$var wire 1 a" i3 $end
$var wire 1 b" i2 $end
$var wire 1 c" i1 $end
$var wire 1 d" cout $end
$scope module g1 $end
$var wire 1 S" A $end
$var wire 1 c" A1 $end
$var wire 1 e" Ab $end
$var wire 1 f" B $end
$var wire 1 b" B1 $end
$var wire 1 g" B11 $end
$var wire 1 h" B12 $end
$var wire 1 i" C $end
$var wire 1 a" C1 $end
$var wire 1 j" C11 $end
$var wire 1 k" C12 $end
$upscope $end
$scope module g2 $end
$var wire 1 T" A $end
$var wire 1 `" A1 $end
$var wire 1 l" Ab $end
$var wire 1 b" B $end
$var wire 1 _" B1 $end
$var wire 1 m" B11 $end
$var wire 1 n" B12 $end
$var wire 1 a" C $end
$var wire 1 ^" C1 $end
$var wire 1 o" C11 $end
$var wire 1 p" C12 $end
$upscope $end
$scope module g3 $end
$var wire 1 U" A $end
$var wire 1 ]" A1 $end
$var wire 1 q" Ab $end
$var wire 1 _" B $end
$var wire 1 \" B1 $end
$var wire 1 r" B11 $end
$var wire 1 s" B12 $end
$var wire 1 ^" C $end
$var wire 1 [" C1 $end
$var wire 1 t" C11 $end
$var wire 1 u" C12 $end
$upscope $end
$scope module g4 $end
$var wire 1 \" A $end
$var wire 1 V" A1 $end
$var wire 1 v" Ab $end
$var wire 1 ]" B $end
$var wire 1 Z" B1 $end
$var wire 1 w" B11 $end
$var wire 1 x" B12 $end
$var wire 1 [" C $end
$var wire 1 Y" C1 $end
$var wire 1 y" C11 $end
$var wire 1 z" C12 $end
$upscope $end
$scope module g5 $end
$var wire 1 `" A $end
$var wire 1 X" A1 $end
$var wire 1 {" Ab $end
$var wire 1 Z" B $end
$var wire 1 d" B1 $end
$var wire 1 |" B11 $end
$var wire 1 }" B12 $end
$var wire 1 Y" C $end
$var wire 1 W" C1 $end
$var wire 1 ~" C11 $end
$var wire 1 !# C12 $end
$upscope $end
$upscope $end
$upscope $end
$upscope $end
$upscope $end
$enddefinitions $end
#0
$dumpvars
0!#
1~"
0}"
0|"
1{"
0z"
1y"
0x"
0w"
1v"
0u"
1t"
0s"
0r"
1q"
0p"
1o"
0n"
0m"
1l"
0k"
1j"
1i"
0h"
0g"
0f"
1e"
0d"
0c"
0b"
1a"
0`"
0_"
1^"
0]"
0\"
1["
0Z"
1Y"
0X"
1W"
0V"
0U"
0T"
0S"
0R"
1Q"
0P"
0O"
1N"
0M"
1L"
0K"
0J"
1I"
0H"
1G"
0F"
0E"
1D"
0C"
1B"
0A"
0@"
1?"
0>"
1="
1<"
0;"
0:"
09"
18"
07"
06"
05"
14"
03"
02"
11"
00"
0/"
1."
0-"
1,"
0+"
1*"
0)"
0("
0'"
0&"
0%"
1$"
0#"
0""
1!"
0~
1}
0|
0{
1z
0y
1x
0w
0v
1u
0t
1s
0r
0q
1p
0o
1n
1m
0l
0k
0j
1i
0h
0g
0f
1e
0d
0c
1b
0a
0`
1_
0^
1]
0\
1[
0Z
0Y
0X
0W
0V
1U
0T
0S
1R
0Q
1P
0O
0N
1M
0L
1K
0J
0I
1H
0G
1F
0E
0D
1C
0B
1A
1@
0?
0>
0=
1<
0;
0:
09
18
07
06
15
04
03
12
01
10
0/
1.
0-
0,
0+
0*
b0 )
b0 (
b0 '
b0 &
0%
b0 $
b0 #
b0 "
0!
$end
#10
1W"
0!
1~"
0d"
1Y"
0|"
1y"
0Z"
1["
0V"
1v"
0x"
0w"
0z"
1t"
0\"
0]"
1q"
0s"
1*"
0U"
1Q"
07"
1,"
0O"
1L"
0-"
1."
0)"
1I"
0K"
0J"
0M"
1G"
0/"
00"
1D"
0F"
1[
0("
1$"
0h
1]
0""
1}
0^
1_
0Z
1z
0|
0{
0~
1x
0`
0a
1u
0w
0.
0Y
0U
b0 )
0;
00
0S
0P
01
02
b1 "
b1 (
1-
0M
0O
0K
13
05
1I
0F
16
08
1D
0A
19
1:
0<
1?
1*
b1 #
b1 &
#20
1W"
0!
1~"
0d"
1Y"
0|"
1y"
0Z"
1["
0V"
1v"
0x"
0w"
0z"
1t"
0\"
0]"
1q"
0s"
1*"
0U"
1Q"
07"
1,"
0O"
1L"
0-"
1."
0)"
1I"
0K"
0J"
0M"
1G"
0/"
00"
1D"
0F"
0[
0("
0$"
b0 )
0h
0]
0""
0}
0^
0.
0_
1Z
0z
0|
0V
0x
1`
b11 "
b11 (
1-
0M
01
0b
1v
13
0O
1E
0s
1c
1I
02
18
0e
1q
16
0K
1A
09
0n
1f
1/
0R
0D
05
0:
1<
0?
1g
0i
1l
17
0C
0G
0*
1W
1+
b10 #
b10 &
b1 $
b1 '
#30
1W"
0!
1~"
0d"
1Y"
0|"
1y"
0Z"
1["
0V"
1v"
0x"
0w"
0z"
1t"
0\"
0]"
1q"
0s"
1*"
0U"
1Q"
07"
1,"
0O"
0L"
0-"
0."
1)"
0I"
0K"
0J"
1M"
0G"
1/"
10"
0D"
1F"
1("
1h
1[
1{
1}
1""
1$"
0Z
1z
1^
1]
0`
0|
0~
0v
1_
1a
0u
1y
1Y
b110 )
1;
1T
10
0.
1P
0V
b100 "
b100 (
0-
1M
01
03
0O
0I
12
06
1K
0E
15
08
1G
0A
19
1:
0<
1?
1*
b11 #
b11 &
#40
1W"
0!
1~"
0d"
1Y"
0|"
1y"
0Z"
1["
0V"
1v"
0x"
0w"
0z"
1t"
0\"
0]"
1q"
0s"
1E"
0*"
0U"
00"
1D"
0Q"
07"
0("
0J"
0L"
0,"
0O"
0[
0h
1)"
0I"
0M"
0-"
1/"
0K"
0^
0]
0F"
0."
1v
10
0{
0}
01"
0H"
0a
1u
0_
1Z
0z
0|
0~
1F
1r
0B"
12"
1.
0Y
0L
0y
1`
0P
18
1e
04"
1@"
0S
1U
0;
06
0""
0$"
1c
0w
01
02
b111 "
b111 (
1-
0M
0O
1A
09
1n
0f
0="
15"
0/
1R
0T
0D
15
1\
0!"
0#"
0%"
0q
0b
0N
1Q
0K
13
0:
1<
0?
0g
1i
0l
16"
08"
1;"
07
1C
0G
1d
0p
0t
14
0H
1J
0*
0W
1&"
0+
1X
1,
b100 #
b100 &
b10 $
b10 '
b1 )
1%
#50
1W"
1~"
1Y"
0!
0d"
0|"
0y"
1L"
0Z"
0["
1V"
0v"
0x"
0w"
1z"
0t"
1\"
1]"
0q"
1s"
1U"
17"
1*"
1O"
1J"
1Q"
0)"
1I"
1-"
1,"
0/"
0K"
0M"
0E"
1."
1}
10"
0D"
1H"
1("
1[
1h
1%"
1{
1#"
0Z
1z
1^
1]
0`
0|
0~
0v
1_
1a
0u
1y
1.
1Y
1U
b1111 )
1;
1N
1P
10
1S
b1000 "
b1000 (
0-
1M
0Q
11
03
0O
0J
12
05
1L
0F
16
08
1D
0A
19
1:
0<
1?
1*
b101 #
b101 &
#60
0!
0d"
0|"
1W"
0Z"
1~"
0x"
0y"
0w"
1Y"
0["
1V"
0v"
1*"
1z"
0t"
1\"
1Q"
1]"
0q"
1s"
1,"
1U"
17"
1O"
0)"
1I"
0K"
0M"
1-"
0/"
1L"
1J"
0E"
1."
10"
0D"
1H"
1("
1h
1#"
1]
0x
1a
0u
1Y
0[
b1111 )
1;
0%"
0^
1.
10
0{
0}
0_
1Z
0z
0|
1~
11
0y
1`
1N
1P
0c
1w
12
b1010 "
b1010 (
0-
1M
0O
0Q
1E
0r
1b
1L
03
18
0e
1t
0S
0U
16
0J
1A
09
0n
1f
1/
0R
1T
1V
0D
05
0:
1<
0?
1g
0i
1l
17
0C
0G
0*
1W
1+
b110 #
b110 &
b11 $
b11 '
#70
0.
0V
01
0N
0P
02
b1011 "
b1011 (
1-
0M
0O
1Q
0L
13
06
1J
0E
15
08
1G
0A
19
1:
0<
1?
1*
b111 #
b111 &
#80
1r"
0W"
0!
0]"
1q"
0~"
0d"
0U"
0w"
0y"
0Y"
0|"
0*"
07"
1V"
0v"
0z"
0Z"
1\"
0x"
0-"
0,"
1.
0s"
0["
1x
1E"
1}
1]
0J"
0L"
1U
0^"
0u"
0a
1u
00"
1D"
1_
0Z
1z
0~
0."
1)"
0I"
0K"
0M"
1F
1s
1A"
0o"
1_"
0Y
0I
1[
0("
0y
0`
0H"
1/"
1P
18
1e
14"
0a"
1m"
0;
06
1$"
0h
0c
0w
0O"
0Q"
12"
0F"
10
12
b1100 "
b1100 (
0-
1M
1A
09
1n
0f
1="
05"
0j"
1b"
0/
1R
0T
0D
15
0\
1!"
0#"
0q
1b
1+"
0N"
0P"
0R"
0@"
01"
0Q
1K
03
0:
1<
0?
0g
1i
0l
06"
18"
0;"
1c"
0e"
1h"
07
1C
0G
0d
1p
0t
13"
0?"
0C"
04
1H
0J
0*
0W
0&"
1S"
0+
0X
1'"
0,
b1000 #
b1000 &
b100 $
b100 '
b0 )
0%
#90
0!
0d"
0W"
0|"
0~"
1V"
0v"
0Z"
0Y"
1\"
0x"
0z"
1r"
0["
0]"
1q"
0u"
0U"
0*"
07"
0R"
0P"
1)"
0I"
0-"
0,"
1/"
0K"
0M"
1E"
0."
00"
1D"
0H"
1[
0("
1$"
0h
1]
0""
1}
0^
1_
0Z
1z
0|
0{
0~
1x
0`
0a
1u
0w
0.
0Y
0U
b0 )
0;
00
0S
0P
01
02
b1101 "
b1101 (
1-
0M
0O
0K
13
05
1I
0F
16
08
1D
0A
19
1:
0<
1?
1*
b1001 #
b1001 &
#100
0!
0d"
0W"
0|"
0~"
1V"
0v"
0Z"
0Y"
1\"
0x"
0z"
1r"
0["
0]"
1q"
0u"
0U"
0*"
07"
0R"
0P"
1)"
0I"
0-"
0,"
1/"
0K"
0M"
1E"
0."
00"
1D"
0H"
0[
0("
0$"
b0 )
0h
0]
0""
0}
0^
0.
0_
1Z
0z
0|
0V
0x
1`
b1111 "
b1111 (
1-
0M
01
0b
1v
13
0O
1E
0s
1c
1I
02
18
0e
1q
16
0K
1A
09
0n
1f
1/
0R
0D
05
0:
1<
0?
1g
0i
1l
17
0C
0G
0*
1W
1+
b1010 #
b1010 &
b101 $
b101 '
#110
1y"
1!
1d"
1W"
1|"
1w"
1~"
0V"
1v"
1Z"
1Y"
0\"
0x"
0z"
0r"
1["
1L"
1]"
0q"
1u"
1U"
1*"
17"
1R"
1J"
1P"
0)"
1I"
1-"
1,"
0/"
0K"
0M"
0E"
1."
10"
0D"
1H"
1("
1h
1[
1{
1}
1""
1$"
0Z
1z
1^
1]
0`
0|
0~
0v
1_
1a
0u
1y
1Y
b11110 )
1;
1T
10
0.
1P
0V
b0 "
b0 (
0-
1M
01
03
0O
0I
12
06
1K
0E
15
08
1G
0A
19
1:
0<
1?
1*
b1011 #
b1011 &
#120
1W"
1~"
1Y"
1!
1d"
1|"
0V"
1v"
0x"
0z"
1Z"
0\"
1y"
1w"
0r"
1["
1]"
0q"
1u"
1U"
17"
1P"
1,"
1G"
0*"
00"
1D"
0R"
0("
0-"
0[
0h
0J"
1L"
1."
0)"
1I"
0K"
0M"
0^
0]
0H"
0/"
1v
10
0{
0}
02"
0F"
0a
1u
0_
1Z
0z
0|
0~
1F
1r
0A"
11"
1.
0Y
0L
0y
1`
0P
18
1e
04"
1C"
0S
1U
0;
06
0""
0$"
1c
0w
01
02
b11 "
b11 (
1-
0M
0O
1A
09
1n
0f
0="
15"
0/
1R
0T
0D
15
1\
0!"
0#"
0%"
0q
0b
0N
1Q
0K
13
0:
1<
0?
0g
1i
0l
16"
08"
1;"
07
1C
0G
1d
0p
0t
14
0H
1J
0*
0W
1&"
0+
1X
1,
b1100 #
b1100 &
b110 $
b110 '
b11001 )
1%
#130
1W"
1~"
1Y"
1!
1d"
1|"
0V"
1v"
0x"
0z"
1Z"
0\"
1y"
1w"
0r"
1["
1]"
0q"
1u"
1U"
17"
1P"
0*"
1,"
0R"
0L"
0-"
0."
1)"
0I"
0K"
0J"
1M"
0G"
1/"
1}
10"
0D"
1F"
1("
1[
1h
1%"
1{
1#"
0Z
1z
1^
1]
0`
0|
0~
0v
1_
1a
0u
1y
1.
1Y
1U
b11111 )
1;
1N
1P
10
1S
b100 "
b100 (
0-
1M
0Q
11
03
0O
0J
12
05
1L
0F
16
08
1D
0A
19
1:
0<
1?
1*
b1101 #
b1101 &
#140
1W"
1~"
1Y"
1!
1d"
1|"
0V"
1v"
0x"
0z"
1Z"
0\"
1y"
1w"
0r"
1["
1]"
0q"
1u"
0*"
1U"
0R"
17"
0-"
1P"
0K"
0L"
0J"
1,"
0."
1)"
0I"
1M"
0G"
1/"
10"
0D"
1F"
1("
1h
1#"
1]
0x
1a
0u
1Y
0[
b11111 )
1;
0%"
0^
1.
10
0{
0}
0_
1Z
0z
0|
1~
11
0y
1`
1N
1P
0c
1w
12
b110 "
b110 (
0-
1M
0O
0Q
1E
0r
1b
1L
03
18
0e
1t
0S
0U
16
0J
1A
09
0n
1f
1/
0R
1T
1V
0D
05
0:
1<
0?
1g
0i
1l
17
0C
0G
0*
1W
1+
b1110 #
b1110 &
b111 $
b111 '
#150
0.
0V
01
0N
0P
02
b111 "
b111 (
1-
0M
0O
1Q
0L
13
06
1J
0E
15
08
1G
0A
19
1:
0<
1?
1*
b1111 #
b1111 &
#160
0!
0W"
0d"
0Z"
0Y"
1.
1x
1G"
1}
1]
1r"
1L"
1,"
0w"
0y"
1U
0a
1u
00"
1D"
1_
0Z
1z
0~
0]"
1q"
1."
0)"
1I"
0M"
0["
1V"
0v"
0x"
0z"
1F
1s
1B"
1n"
0Y
0I
1[
0("
0y
0`
1*"
0U"
0H"
0/"
0u"
1\"
1P
18
1e
14"
1a"
0;
06
1$"
0h
0c
0w
1Q"
07"
02"
0F"
0|"
0~"
1_"
0s"
10
12
b1000 "
b1000 (
0-
1M
1A
09
1n
0f
1="
05"
1j"
0b"
0/
1R
0T
0D
15
0\
1!"
0#"
0q
1b
0+"
1N"
0P"
0@"
11"
1X"
0{"
0}"
0!#
0m"
0^"
0Q
1K
03
0:
1<
0?
0g
1i
0l
06"
18"
0;"
0c"
1e"
0h"
07
1C
0G
0d
1p
0t
03"
1?"
0C"
1`"
0l"
0p"
04
1H
0J
0*
0W
0&"
0S"
0+
0X
0'"
1T"
0,
b0 #
b0 &
b1000 $
b1000 '
b0 )
0%
#170
0!
0W"
0d"
0!#
0}"
1V"
0v"
0Z"
0Y"
1\"
0x"
0z"
1r"
0["
0]"
1q"
0u"
1*"
0U"
1Q"
07"
1,"
0O"
1L"
0-"
1."
0)"
1I"
0K"
0J"
0M"
1G"
0/"
00"
1D"
0F"
1[
0("
1$"
0h
1]
0""
1}
0^
1_
0Z
1z
0|
0{
0~
1x
0`
0a
1u
0w
0.
0Y
0U
b0 )
0;
00
0S
0P
01
02
b1001 "
b1001 (
1-
0M
0O
0K
13
05
1I
0F
16
08
1D
0A
19
1:
0<
1?
1*
b1 #
b1 &
#180
0!
0W"
0d"
0!#
0}"
1V"
0v"
0Z"
0Y"
1\"
0x"
0z"
1r"
0["
0]"
1q"
0u"
1*"
0U"
1Q"
07"
1,"
0O"
1L"
0-"
1."
0)"
1I"
0K"
0J"
0M"
1G"
0/"
00"
1D"
0F"
0[
0("
0$"
b0 )
0h
0]
0""
0}
0^
0.
0_
1Z
0z
0|
0V
0x
1`
b1011 "
b1011 (
1-
0M
01
0b
1v
13
0O
1E
0s
1c
1I
02
18
0e
1q
16
0K
1A
09
0n
1f
1/
0R
0D
05
0:
1<
0?
1g
0i
1l
17
0C
0G
0*
1W
1+
b10 #
b10 &
b1001 $
b1001 '
#190
0!
0W"
0d"
0!#
0w"
0}"
1V"
0v"
0Z"
0Y"
1\"
0x"
0z"
1r"
0["
0]"
1q"
0u"
1*"
0U"
1Q"
07"
1,"
0O"
0L"
0-"
0."
1)"
0I"
0K"
0J"
1M"
0G"
1/"
10"
0D"
1F"
1("
1h
1[
1{
1}
1""
1$"
0Z
1z
1^
1]
0`
0|
0~
0v
1_
1a
0u
1y
1Y
b110 )
1;
1T
10
0.
1P
0V
b1100 "
b1100 (
0-
1M
01
03
0O
0I
12
06
1K
0E
15
08
1G
0A
19
1:
0<
1?
1*
b11 #
b11 &
#200
0!
0W"
0d"
0!#
0w"
0}"
1V"
0v"
0Z"
0Y"
1\"
0x"
0z"
1r"
0["
0]"
1q"
0u"
1E"
0*"
0U"
00"
1D"
0Q"
07"
0("
0J"
0L"
0,"
0O"
0[
0h
1)"
0I"
0M"
0-"
1/"
0K"
0^
0]
0F"
0."
1v
10
0{
0}
01"
0H"
0a
1u
0_
1Z
0z
0|
0~
1F
1r
0B"
12"
1.
0Y
0L
0y
1`
0P
18
1e
04"
1@"
0S
1U
0;
06
0""
0$"
1c
0w
01
02
b1111 "
b1111 (
1-
0M
0O
1A
09
1n
0f
0="
15"
0/
1R
0T
0D
15
1\
0!"
0#"
0%"
0q
0b
0N
1Q
0K
13
0:
1<
0?
0g
1i
0l
16"
08"
1;"
07
1C
0G
1d
0p
0t
14
0H
1J
0*
0W
1&"
0+
1X
1,
b100 #
b100 &
b1010 $
b1010 '
b1 )
1%
#210
1w"
1!
1W"
1d"
1y"
1!#
1}"
0V"
1v"
1Z"
1L"
1Y"
0\"
0x"
0z"
0r"
1["
1]"
0q"
1u"
1U"
17"
1*"
1O"
1J"
1Q"
0)"
1I"
1-"
1,"
0/"
0K"
0M"
0E"
1."
1}
10"
0D"
1H"
1("
1[
1h
1%"
1{
1#"
0Z
1z
1^
1]
0`
0|
0~
0v
1_
1a
0u
1y
1.
1Y
1U
b11111 )
1;
1N
1P
10
1S
b0 "
b0 (
0-
1M
0Q
11
03
0O
0J
12
05
1L
0F
16
08
1D
0A
19
1:
0<
1?
1*
b101 #
b101 &
#220
1!
1d"
1}"
1Y"
1W"
1!#
0V"
1v"
0x"
0z"
1Z"
0\"
1y"
1*"
1w"
0r"
1["
1Q"
1]"
0q"
1u"
1,"
1U"
17"
1O"
0)"
1I"
0K"
0M"
1-"
0/"
1L"
1J"
0E"
1."
10"
0D"
1H"
1("
1h
1#"
1]
0x
1a
0u
1Y
0[
b11111 )
1;
0%"
0^
1.
10
0{
0}
0_
1Z
0z
0|
1~
11
0y
1`
1N
1P
0c
1w
12
b10 "
b10 (
0-
1M
0O
0Q
1E
0r
1b
1L
03
18
0e
1t
0S
0U
16
0J
1A
09
0n
1f
1/
0R
1T
1V
0D
05
0:
1<
0?
1g
0i
1l
17
0C
0G
0*
1W
1+
b110 #
b110 &
b1011 $
b1011 '
#230
0.
0V
01
0N
0P
02
b11 "
b11 (
1-
0M
0O
1Q
0L
13
06
1J
0E
15
08
1G
0A
19
1:
0<
1?
1*
b111 #
b111 &
#240
1!
1d"
1}"
1Y"
1t"
0W"
0]"
1q"
0!#
0U"
0Z"
0*"
07"
0w"
1y"
1["
0V"
1v"
0x"
0z"
0-"
0,"
1.
0u"
0\"
1x
1E"
1}
1]
0J"
0L"
1U
0_"
0s"
0a
1u
00"
1D"
1_
0Z
1z
0~
0."
1)"
0I"
0K"
0M"
1F
1s
1A"
0n"
1^"
0Y
0I
1[
0("
0y
0`
0H"
1/"
1P
18
1e
14"
0a"
1p"
0;
06
1$"
0h
0c
0w
0O"
0Q"
12"
0F"
10
12
b100 "
b100 (
0-
1M
1A
09
1n
0f
1="
05"
0j"
1b"
0/
1R
0T
0D
15
0\
1!"
0#"
0q
1b
1+"
0N"
0P"
0R"
0@"
01"
0Q
1K
03
0:
1<
0?
0g
1i
0l
06"
18"
0;"
1c"
0e"
1h"
07
1C
0G
0d
1p
0t
13"
0?"
0C"
04
1H
0J
0*
0W
0&"
1S"
0+
0X
1'"
0,
b1000 #
b1000 &
b1100 $
b1100 '
b10000 )
0%
#250
1!
1d"
1}"
0W"
1Y"
0!#
1y"
0Z"
1["
0V"
1v"
0x"
0w"
0z"
1t"
0\"
0]"
1q"
0s"
0U"
0*"
07"
0R"
0P"
1)"
0I"
0-"
0,"
1/"
0K"
0M"
1E"
0."
00"
1D"
0H"
1[
0("
1$"
0h
1]
0""
1}
0^
1_
0Z
1z
0|
0{
0~
1x
0`
0a
1u
0w
0.
0Y
0U
b10000 )
0;
00
0S
0P
01
02
b101 "
b101 (
1-
0M
0O
0K
13
05
1I
0F
16
08
1D
0A
19
1:
0<
1?
1*
b1001 #
b1001 &
#260
1!
1d"
1}"
0W"
1Y"
0!#
1y"
0Z"
1["
0V"
1v"
0x"
0w"
0z"
1t"
0\"
0]"
1q"
0s"
0U"
0*"
07"
0R"
0P"
1)"
0I"
0-"
0,"
1/"
0K"
0M"
1E"
0."
00"
1D"
0H"
0[
0("
0$"
b10000 )
0h
0]
0""
0}
0^
0.
0_
1Z
0z
0|
0V
0x
1`
b111 "
b111 (
1-
0M
01
0b
1v
13
0O
1E
0s
1c
1I
02
18
0e
1q
16
0K
1A
09
0n
1f
1/
0R
0D
05
0:
1<
0?
1g
0i
1l
17
0C
0G
0*
1W
1+
b1010 #
b1010 &
b1101 $
b1101 '
#270
1!
1d"
1}"
0W"
1Y"
0!#
0y"
0Z"
0["
1V"
0v"
0x"
0w"
1z"
0t"
1\"
1L"
1]"
0q"
1s"
1U"
1*"
17"
1R"
1J"
1P"
0)"
1I"
1-"
1,"
0/"
0K"
0M"
0E"
1."
10"
0D"
1H"
1("
1h
1[
1{
1}
1""
1$"
0Z
1z
1^
1]
0`
0|
0~
0v
1_
1a
0u
1y
1Y
b11110 )
1;
1T
10
0.
1P
0V
b1000 "
b1000 (
0-
1M
01
03
0O
0I
12
06
1K
0E
15
08
1G
0A
19
1:
0<
1?
1*
b1011 #
b1011 &
